lab2/simulation/qsim/lab2.msim.vcd
$comment
	File created using the following command:
		vcd file lab2.msim.vcd -direction
$end
$date
	Wed Sep 23 20:04:25 2020
$end
$version
	ModelSim Version 10.5b
$end
$timescale
	1ps
$end

$scope module Lab2_vlg_vec_tst $end
$var reg 1 ! CLOCK $end
$var reg 1 " DIN0 $end
$var reg 1 # DIN1 $end
$var reg 1 $ FETCH $end
$var reg 1 % LDSBR $end
$var reg 1 & SAR0 $end
$var reg 1 ' SAR1 $end
$var reg 1 ( STORE $end
$var wire 1 ) Q00 $end
$var wire 1 * Q01 $end
$var wire 1 + Q02 $end
$var wire 1 , Q03 $end
$var wire 1 - Q10 $end
$var wire 1 . Q11 $end
$var wire 1 / Q12 $end
$var wire 1 0 Q13 $end
$var wire 1 1 SBR0 $end
$var wire 1 2 SBR1 $end

$scope module i1 $end
$var wire 1 3 gnd $end
$var wire 1 4 vcc $end
$var wire 1 5 unknown $end
$var tri1 1 6 devclrn $end
$var tri1 1 7 devpor $end
$var tri1 1 8 devoe $end
$var wire 1 9 SBR1~output_o $end
$var wire 1 : SBR0~output_o $end
$var wire 1 ; Q00~output_o $end
$var wire 1 < Q01~output_o $end
$var wire 1 = Q02~output_o $end
$var wire 1 > Q03~output_o $end
$var wire 1 ? Q10~output_o $end
$var wire 1 @ Q11~output_o $end
$var wire 1 A Q12~output_o $end
$var wire 1 B Q13~output_o $end
$var wire 1 C CLOCK~input_o $end
$var wire 1 D CLOCK~inputclkctrl_outclk $end
$var wire 1 E LDSBR~input_o $end
$var wire 1 F FETCH~input_o $end
$var wire 1 G STORE~input_o $end
$var wire 1 H inst3|10~0_combout $end
$var wire 1 I SAR0~input_o $end
$var wire 1 J inst6|26~0_combout $end
$var wire 1 K inst6|26~q $end
$var wire 1 L SAR1~input_o $end
$var wire 1 M inst6|5~combout $end
$var wire 1 N inst6|25~0_combout $end
$var wire 1 O inst6|25~q $end
$var wire 1 P inst15|4~0_combout $end
$var wire 1 Q inst15|4~1_combout $end
$var wire 1 R inst|23~0_combout $end
$var wire 1 S inst7|41~q $end
$var wire 1 T inst7|40~feeder_combout $end
$var wire 1 U inst7|40~q $end
$var wire 1 V inst7|39~feeder_combout $end
$var wire 1 W inst7|39~q $end
$var wire 1 X inst7|38~feeder_combout $end
$var wire 1 Y inst7|38~q $end
$var wire 1 Z DIN1~input_o $end
$var wire 1 [ inst3|10~1_combout $end
$var wire 1 \ inst3|9~0_combout $end
$var wire 1 ] inst3|9~1_combout $end
$var wire 1 ^ inst4|10~q $end
$var wire 1 _ inst|22~0_combout $end
$var wire 1 ` inst2|41~q $end
$var wire 1 a inst2|40~feeder_combout $end
$var wire 1 b inst2|40~q $end
$var wire 1 c inst2|39~feeder_combout $end
$var wire 1 d inst2|39~q $end
$var wire 1 e inst2|38~feeder_combout $end
$var wire 1 f inst2|38~q $end
$var wire 1 g DIN0~input_o $end
$var wire 1 h inst3|9~2_combout $end
$var wire 1 i inst4|9~q $end
$upscope $end
$upscope $end
$enddefinitions $end
#0
$dumpvars
1!
0"
1#
0$
1%
0&
0'
0(
0)
0*
0+
0,
0-
0.
0/
00
01
02
03
14
x5
16
17
18
09
0:
0;
0<
0=
0>
0?
0@
0A
0B
1C
1D
1E
0F
0G
1H
0I
1J
0K
0L
1M
1N
0O
1P
0Q
0R
0S
0T
0U
0V
0W
0X
0Y
1Z
1[
0\
1]
0^
0_
0`
0a
0b
0c
0d
0e
0f
0g
0h
0i
$end
#5000
0!
0C
0D
#10000
1!
1C
1D
1K
1^
19
0P
12
0J
#15000
0!
0C
0D
0M
#20000
1!
1C
1D
1M
1O
0K
0N
1J
#25000
0!
0C
0D
#30000
0%
1!
0E
1C
1D
0]
0H
0[
1K
0J
#35000
0!
0C
0D
0M
#40000
0#
1%
1!
0Z
1E
1C
1D
1]
1H
1M
0O
0K
1P
1N
1J
#45000
0!
0C
0D
#50000
1!
1C
1D
1K
0^
09
0P
02
0J
#55000
0!
0C
0D
0M
#60000
1!
1C
1D
1M
1O
0K
0N
1J
#65000
0!
0C
0D
#70000
0%
1!
0E
1C
1D
0]
0H
1K
0J
#75000
0!
0C
0D
0M
#80000
1"
1%
1!
1g
1E
1C
1D
1]
1H
1M
1h
0O
0K
1P
1N
1J
#85000
0!
0C
0D
#90000
1!
1C
1D
1K
1i
1:
0P
11
0J
#95000
0!
0C
0D
0M
#100000
1!
1C
1D
1M
1O
0K
0N
1J
#105000
0!
0C
0D
#110000
0%
1!
0E
1C
1D
0]
0H
0h
1K
0J
#115000
0!
0C
0D
0M
#120000
1#
1%
1!
1Z
1E
1C
1D
1]
1H
1M
1h
1[
0O
0K
1P
1N
1J
#125000
0!
0C
0D
#130000
1!
1C
1D
1K
1^
19
0P
12
0J
#135000
0!
0C
0D
0M
#140000
1!
1C
1D
1M
1O
0K
0N
1J
#145000
0!
0C
0D
#150000
0%
1!
0E
1C
1D
0]
0H
0h
0[
1K
0J
#155000
0!
0C
0D
0M
#160000
0"
0#
1!
0g
0Z
1C
1D
1M
0O
0K
1P
1N
1J
#165000
0!
0C
0D
#170000
1!
1C
1D
1K
0P
0J
#175000
0!
0C
0D
0M
#180000
1!
1C
1D
1M
1O
0K
0N
1J
#185000
0!
0C
0D
#190000
1&
1'
1!
1I
1L
1C
1D
1K
1P
0J
#195000
0!
0C
0D
0M
#200000
1(
1!
1G
1C
1D
1Q
1M
1_
1R
0O
0K
0P
1N
1J
0Q
0_
0R
#205000
0!
0C
0D
#210000
1!
1C
1D
1K
0J
#215000
0!
0C
0D
0M
#220000
1!
1C
1D
1M
1O
0K
0N
1J
#225000
0!
0C
0D
#230000
1!
1C
1D
1K
1P
0J
1Q
1_
1R
#235000
0!
0C
0D
0M
#240000
0(
1!
0G
1C
1D
0Q
1M
0_
0R
0O
0K
1`
1S
1?
1;
0P
1)
1-
1N
1J
1a
1T
#245000
0!
0C
0D
#250000
1%
1"
1!
1E
1g
1C
1D
1]
1H
1h
1K
1b
0`
1U
0S
0?
1@
0;
1<
1*
0)
1.
0-
0J
1c
0a
1V
0T
#255000
0!
0C
0D
0M
#260000
1!
1C
1D
1M
1O
0K
1d
0b
0^
1W
0U
0@
1A
09
0<
1=
1+
0*
02
1/
0.
0N
1J
1e
0c
1X
0V
#265000
0!
0C
0D
#270000
1!
1C
1D
1K
1f
0d
1Y
0W
0A
1B
0=
1>
1P
1,
0+
10
0/
0J
1_
0e
1R
0X
#275000
0!
0C
0D
0M
#280000
0'
0%
1!
0L
0E
1C
1D
0]
0P
0H
1[
1M
0O
0K
0f
1`
0Y
1S
1?
0B
1;
0>
0,
1)
00
1-
1N
1J
0h
0_
1a
0[
0R
1T
#285000
0!
0C
0D
#290000
1(
0"
1!
1G
0g
1C
1D
1K
1b
0`
1U
0S
0?
1@
0;
1<
1P
1*
0)
1.
0-
0J
1c
0a
1V
0T
1Q
1_
#295000
0!
0C
0D
0M
#300000
1!
1C
1D
1M
1O
0K
1d
0b
1`
1W
0U
0@
1A
1;
0<
1=
0P
1+
0*
1)
1/
0.
0N
1J
1e
0c
1a
1X
0V
0Q
0_
#305000
0!
0C
0D
#310000
1!
1C
1D
1K
1f
0d
1b
0`
1Y
0W
0A
1B
0;
1<
0=
1>
1,
0+
1*
0)
10
0/
0J
1h
1_
0e
1c
0a
1[
1R
0X
#315000
0!
0C
0D
0M
#320000
1!
1C
1D
1M
0O
0K
0f
1d
0b
1`
0Y
1S
1?
0B
1;
0<
1=
0>
0,
1+
0*
1)
00
1-
1N
1J
0h
0_
1e
0c
1a
0[
0R
1T
#325000
0!
0C
0D
#330000
0(
1!
0G
1C
1D
1K
1f
0d
1b
0`
1U
0S
0?
1@
0;
1<
0=
1>
1P
1,
0+
1*
0)
1.
0-
0J
1h
1_
0e
1c
0a
1V
0T
#335000
0!
0C
0D
0M
#340000
1%
1!
1E
1C
1D
1]
1H
0h
1M
1O
0K
0f
1d
0b
1`
1W
0U
0@
1A
1;
0<
1=
0>
0P
0,
1+
0*
1)
1/
0.
0N
1J
0_
1e
0c
1a
1X
0V
#345000
0!
0C
0D
#350000
1!
1C
1D
1K
0i
1f
0d
1b
0`
1Y
0W
0A
1B
0;
1<
0=
1>
0:
01
1,
0+
1*
0)
10
0/
0J
1_
0e
1c
0a
1R
0X
#355000
0!
0C
0D
0M
#360000
1!
1C
1D
1M
0O
0K
0f
1d
0b
1`
0Y
1S
1?
0B
1;
0<
1=
0>
0,
1+
0*
1)
00
1-
1N
1J
0_
1e
0c
1a
0R
1T
#365000
0!
0C
0D
#370000
0&
0%
1!
0I
0E
1C
1D
1P
0]
0H
1K
1f
0d
1b
0`
1U
0S
0?
1@
0;
1<
0=
1>
0P
1,
0+
1*
0)
1.
0-
0J
1h
1_
0e
1c
0a
1V
0T
#375000
0!
0C
0D
0M
#380000
1(
1!
1G
1C
1D
1M
1O
0K
0f
1d
0b
1`
1W
0U
0@
1A
1;
0<
1=
0>
0,
1+
0*
1)
1/
0.
0N
1J
0h
0_
1e
0c
1a
1X
0V
#385000
0!
0C
0D
#390000
1!
1C
1D
1K
1f
0d
1b
0`
1Y
0W
0A
1B
0;
1<
0=
1>
1,
0+
1*
0)
10
0/
0J
1h
1_
0e
1c
0a
1[
1R
0X
#395000
0!
0C
0D
0M
#400000
1!
1C
1D
1M
0O
0K
0f
1d
0b
1`
0Y
1S
1?
0B
1;
0<
1=
0>
1P
0,
1+
0*
1)
00
1-
1N
1J
0h
0_
1e
0c
1a
0[
0R
1T
1Q
#405000
0!
0C
0D
#410000
1!
1C
1D
1K
1f
0d
1b
0`
1U
0S
0?
1@
0;
1<
0=
1>
0P
1,
0+
1*
0)
1.
0-
0J
1h
0e
1c
0a
1V
0T
0Q
1_
#415000
0!
0C
0D
0M
#420000
0(
1!
0G
1C
1D
1M
1O
0K
0f
1d
0b
1`
1W
0U
0@
1A
1;
0<
1=
0>
0,
1+
0*
1)
1/
0.
0N
1J
0h
0_
1e
0c
1a
1X
0V
#425000
0!
0C
0D
#430000
1#
1%
1!
1Z
1E
1C
1D
1]
1H
1[
1K
1f
0d
1b
0`
1Y
0W
0A
1B
0;
1<
0=
1>
1,
0+
1*
0)
10
0/
0J
1_
0e
1c
0a
1R
0X
#435000
0!
0C
0D
0M
#440000
1!
1C
1D
1M
0O
0K
0f
1d
0b
1`
1^
0Y
1S
1?
0B
19
1;
0<
1=
0>
1P
0,
1+
0*
1)
12
00
1-
1N
1J
0_
1e
0c
1a
0R
1T
#445000
0!
0C
0D
#450000
1!
1C
1D
1K
1f
0d
1b
0`
1U
0S
0?
1@
0;
1<
0=
1>
0P
1,
0+
1*
0)
1.
0-
0J
1_
0e
1c
0a
1V
0T
#455000
0!
0C
0D
0M
#460000
1'
0%
1!
1L
0E
1C
1D
0]
0H
1h
1M
0[
1O
0K
0f
1d
0b
1`
1W
0U
0@
1A
1;
0<
1=
0>
1P
0,
1+
0*
1)
1/
0.
0N
1J
0h
0_
1e
0c
1a
1X
0V
#465000
0!
0C
0D
#470000
1(
0#
1!
1G
0Z
1C
1D
1Q
1R
1K
1f
0d
1b
0`
1Y
0W
0A
1B
0;
1<
0=
1>
0P
1,
0+
1*
0)
10
0/
0J
1h
0e
1c
0a
1[
0X
0Q
1_
#475000
0!
0C
0D
0M
#480000
1!
1C
1D
1M
0O
0K
0f
1d
0b
1`
0Y
1S
1?
0B
1;
0<
1=
0>
0,
1+
0*
1)
00
1-
1N
1J
0h
0_
1e
0c
1a
0[
0R
1T
#485000
0!
0C
0D
#490000
1!
1C
1D
1K
1f
0d
1b
0`
1U
0S
0?
1@
0;
1<
0=
1>
1,
0+
1*
0)
1.
0-
0J
1h
1_
0e
1c
0a
1V
0T
#495000
0!
0C
0D
0M
#500000
1!
1C
1D
1M
1O
0K
0f
1d
0b
1`
1W
0U
0@
1A
1;
0<
1=
0>
1P
0,
1+
0*
1)
1/
0.
0N
1J
0h
0_
1e
0c
1a
1X
0V
1Q
1R
#505000
0!
0C
0D
#510000
0(
1!
0G
1C
1D
0Q
0R
1K
1f
0d
1b
0`
1Y
0W
1S
1?
0A
1B
0;
1<
0=
1>
0P
1,
0+
1*
0)
10
0/
1-
0J
1h
1_
0e
1c
0a
1[
1R
0X
1T
#515000
0!
0C
0D
0M
#520000
1!
1C
1D
1M
0O
0K
0f
1d
0b
1`
0Y
1U
1@
0B
1;
0<
1=
0>
0,
1+
0*
1)
00
1.
1N
1J
0h
0_
1e
0c
1a
0[
0R
1V
#525000
0!
0C
0D
#530000
1!
1C
1D
1K
1f
0d
1b
0`
1W
0S
0?
1A
0;
1<
0=
1>
1,
0+
1*
0)
1/
0-
0J
1h
1_
0e
1c
0a
1X
0T
#535000
0!
0C
0D
0M
#540000
1!
1C
1D
1M
1O
0K
0f
1d
0b
1`
1Y
0U
0@
1B
1;
0<
1=
0>
1P
0,
1+
0*
1)
10
0.
0N
1J
0h
0_
1e
0c
1a
1[
1R
0V
#545000
0!
0C
0D
#550000
0'
1!
0L
1C
1D
0P
1K
1f
0d
1b
0`
0W
1S
1?
0A
0;
1<
0=
1>
1,
0+
1*
0)
0/
1-
0J
1h
1_
0e
1c
0a
0X
1T
#555000
0!
0C
0D
0M
#560000
1!
1C
1D
1M
0O
0K
0f
1d
0b
1`
0Y
1U
1@
0B
1;
0<
1=
0>
1P
0,
1+
0*
1)
00
1.
1N
1J
0h
0_
1e
0c
1a
0[
0R
1V
#565000
0!
0C
0D
#570000
1!
1C
1D
1K
1f
0d
1b
0`
1W
0S
0?
1A
0;
1<
0=
1>
0P
1,
0+
1*
0)
1/
0-
0J
1h
1_
0e
1c
0a
1X
0T
#575000
0!
0C
0D
0M
#580000
1!
1C
1D
1M
1O
0K
0f
1d
0b
1`
1Y
0U
0@
1B
1;
0<
1=
0>
0,
1+
0*
1)
10
0.
0N
1J
0h
0_
1e
0c
1a
1[
1R
0V
#585000
0!
0C
0D
#590000
1!
1C
1D
1K
1f
0d
1b
0`
0W
1S
1?
0A
0;
1<
0=
1>
1,
0+
1*
0)
0/
1-
0J
1h
1_
0e
1c
0a
0X
1T
#595000
0!
0C
0D
0M
#600000
1!
1C
1D
1M
0O
0K
0f
1d
0b
1`
0Y
1U
1@
0B
1;
0<
1=
0>
1P
0,
1+
0*
1)
00
1.
1N
1J
0h
0_
1e
0c
1a
0[
0R
1V
#605000
0!
0C
0D
#610000
1!
1C
1D
1K
1f
0d
1b
0`
1W
0S
0?
1A
0;
1<
0=
1>
0P
1,
0+
1*
0)
1/
0-
0J
1h
1_
0e
1c
0a
1X
0T
#615000
0!
0C
0D
0M
#620000
1!
1C
1D
1M
1O
0K
0f
1d
0b
1`
1Y
0U
0@
1B
1;
0<
1=
0>
0,
1+
0*
1)
10
0.
0N
1J
0h
0_
1e
0c
1a
1[
1R
0V
#625000
0!
0C
0D
#630000
1&
1'
1!
1I
1L
1C
1D
1K
1f
0d
1b
0`
0W
1S
1?
0A
0;
1<
0=
1>
1P
1,
0+
1*
0)
0/
1-
0J
1h
1_
0e
1c
0a
0X
1T
#635000
0!
0C
0D
0M
#640000
1$
1!
1F
1C
1D
1\
1M
1]
0O
0K
0f
1d
0b
1`
0Y
1U
1@
0B
1;
0<
1=
0>
0]
0P
0\
0,
1+
0*
1)
00
1.
1N
1J
0h
0_
1e
0c
1a
0[
0R
1V
#645000
0!
0C
0D
#650000
1!
1C
1D
1K
1f
0d
1b
0`
1W
0S
0?
1A
0;
1<
0=
1>
1\
1,
0+
1*
0)
1/
0-
0J
1h
1_
0e
1c
0a
1X
0T
#655000
0!
0C
0D
0M
#660000
1!
1C
1D
1M
1O
0K
0f
1d
0b
1`
1Y
0U
0@
1B
1;
0<
1=
0>
1]
0\
0,
1+
0*
1)
10
0.
0N
1J
0h
0_
1e
0c
1a
1[
1R
0V
0]
#665000
0!
0C
0D
#670000
1!
1C
1D
1K
1f
0d
1b
0`
0W
1S
1?
0A
0;
1<
0=
1>
1\
1P
1,
0+
1*
0)
0/
1-
0J
1h
1_
0e
1c
0a
0X
1T
1]
#675000
0!
0C
0D
0M
#680000
0'
0$
1!
0L
0F
1C
1D
0]
0P
0\
1M
0O
0K
1i
0f
1d
0b
1`
0Y
1U
1@
0B
1;
0<
1=
0>
1:
11
0,
1+
0*
1)
00
1.
1N
1J
0_
0h
1e
0c
1a
0[
0R
1V
#685000
0!
0C
0D
#690000
1$
1!
1F
1C
1D
1K
1f
0d
1b
0`
1W
0S
0?
1A
0;
1<
0=
1>
1\
1P
1,
0+
1*
0)
1/
0-
0J
1h
1_
0e
1c
0a
1X
0T
1]
#695000
0!
0C
0D
0M
#700000
1!
1C
1D
1M
1O
0K
0f
1d
0b
1`
0^
1Y
0U
0@
1B
09
1;
0<
1=
0>
0]
0P
0\
0,
1+
0*
1)
02
10
0.
0N
1J
0h
0_
1e
0c
1a
1R
1[
0V
#705000
0!
0C
0D
#710000
1!
1C
1D
1K
1f
0d
1b
0`
0W
1S
1?
0A
0;
1<
0=
1>
1\
1,
0+
1*
0)
0/
1-
0J
1h
1_
0e
1c
0a
0X
1T
#715000
0!
0C
0D
0M
#720000
1!
1C
1D
1M
0O
0K
0f
1d
0b
1`
0Y
1U
1@
0B
1;
0<
1=
0>
1]
0\
0,
1+
0*
1)
00
1.
1N
1J
0h
0_
1e
0c
1a
0[
0R
1V
0]
#725000
0!
0C
0D
#730000
0&
0$
1!
0I
0F
1C
1D
1P
1K
1f
0d
1b
0`
1W
0S
0?
1A
0;
1<
0=
1>
0P
1,
0+
1*
0)
1/
0-
0J
1h
1_
0e
1c
0a
1X
0T
#735000
0!
0C
0D
0M
#740000
1$
1!
1F
1C
1D
1M
1O
0K
0f
1d
0b
1`
1Y
0U
0@
1B
1;
0<
1=
0>
1\
0,
1+
0*
1)
10
0.
0N
1J
0h
0_
1e
0c
1a
1[
1R
0V
#745000
0!
0C
0D
#750000
1!
1C
1D
1K
1f
0d
1b
0`
0W
1S
1?
0A
0;
1<
0=
1>
0\
1,
0+
1*
0)
0/
1-
0J
1h
1_
0e
1c
0a
0X
1T
#755000
0!
0C
0D
0M
#760000
1!
1C
1D
1M
0O
0K
0f
1d
0b
1`
0Y
1U
1@
0B
1;
0<
1=
0>
1P
1\
0,
1+
0*
1)
00
1.
1N
1J
0h
0_
1e
0c
1a
0[
0R
1V
1]
#765000
0!
0C
0D
#770000
1!
1C
1D
1K
0i
1f
0d
1b
0`
1W
0S
0?
1A
0;
1<
0=
1>
0:
0\
0P
01
1,
0+
1*
0)
1/
0-
0J
1_
1h
0e
1c
0a
1X
0T
0]
#775000
0!
0C
0D
0M
#780000
1'
0$
1!
1L
0F
1C
1D
1M
1O
0K
0f
1d
0b
1`
1Y
0U
0@
1B
1;
0<
1=
0>
1P
0,
1+
0*
1)
10
0.
0N
1J
0h
0_
1e
0c
1a
1[
1R
0V
#785000
0!
0C
0D
#790000
1$
1!
1F
1C
1D
1\
1]
1K
1f
0d
1b
0`
0W
1S
1?
0A
0;
1<
0=
1>
0\
0P
1,
0+
1*
0)
0/
1-
0J
1h
1_
0e
1c
0a
0X
1T
0]
#795000
0!
0C
0D
0M
#800000
1!
1C
1D
1M
0O
0K
0f
1d
0b
1`
0Y
1U
1@
0B
1;
0<
1=
0>
1\
0,
1+
0*
1)
00
1.
1N
1J
0h
0_
1e
0c
1a
0[
0R
1V
#805000
0!
0C
0D
#810000
1!
1C
1D
1K
1f
0d
1b
0`
1W
0S
0?
1A
0;
1<
0=
1>
0\
1,
0+
1*
0)
1/
0-
0J
1h
1_
0e
1c
0a
1X
0T
#815000
0!
0C
0D
0M
#820000
1!
1C
1D
1M
1O
0K
0f
1d
0b
1`
1Y
0U
0@
1B
1;
0<
1=
0>
1P
1\
0,
1+
0*
1)
10
0.
0N
1J
0h
0_
1e
0c
1a
1[
1R
0V
1]
#825000
0!
0C
0D
#830000
0'
0$
1!
0L
0F
1C
1D
0]
0P
0\
1K
1f
0d
1b
0`
1^
0W
1S
1?
0A
19
0;
1<
0=
1>
1,
0+
1*
0)
12
0/
1-
0J
1h
1_
0e
1c
0a
0X
1T
#835000
0!
0C
0D
0M
#840000
1!
1C
1D
1M
0O
0K
0f
1d
0b
1`
0Y
1U
1@
0B
1;
0<
1=
0>
1P
0,
1+
0*
1)
00
1.
1N
1J
0h
0_
1e
0c
1a
0[
0R
1V
#845000
0!
0C
0D
#850000
1!
1C
1D
1K
1f
0d
1b
0`
1W
0S
0?
1A
0;
1<
0=
1>
0P
1,
0+
1*
0)
1/
0-
0J
1h
1_
0e
1c
0a
1X
0T
#855000
0!
0C
0D
0M
#860000
1!
1C
1D
1M
1O
0K
0f
1d
0b
1`
1Y
0U
0@
1B
1;
0<
1=
0>
0,
1+
0*
1)
10
0.
0N
1J
0h
0_
1e
0c
1a
1[
1R
0V
#865000
0!
0C
0D
#870000
1!
1C
1D
1K
1f
0d
1b
0`
0W
1S
1?
0A
0;
1<
0=
1>
1,
0+
1*
0)
0/
1-
0J
1h
1_
0e
1c
0a
0X
1T
#875000
0!
0C
0D
0M
#880000
1!
1C
1D
1M
0O
0K
0f
1d
0b
1`
0Y
1U
1@
0B
1;
0<
1=
0>
1P
0,
1+
0*
1)
00
1.
1N
1J
0h
0_
1e
0c
1a
0[
0R
1V
#885000
0!
0C
0D
#890000
1!
1C
1D
1K
1f
0d
1b
0`
1W
0S
0?
1A
0;
1<
0=
1>
0P
1,
0+
1*
0)
1/
0-
0J
1h
1_
0e
1c
0a
1X
0T
#895000
0!
0C
0D
0M
#900000
1!
1C
1D
1M
1O
0K
0f
1d
0b
1`
1Y
0U
0@
1B
1;
0<
1=
0>
0,
1+
0*
1)
10
0.
0N
1J
0h
0_
1e
0c
1a
1[
1R
0V
#905000
0!
0C
0D
#910000
1!
1C
1D
1K
1f
0d
1b
0`
0W
1S
1?
0A
0;
1<
0=
1>
1,
0+
1*
0)
0/
1-
0J
1h
1_
0e
1c
0a
0X
1T
#915000
0!
0C
0D
0M
#920000
1!
1C
1D
1M
0O
0K
0f
1d
0b
1`
0Y
1U
1@
0B
1;
0<
1=
0>
1P
0,
1+
0*
1)
00
1.
1N
1J
0h
0_
1e
0c
1a
0[
0R
1V
#925000
0!
0C
0D
#930000
1!
1C
1D
1K
1f
0d
1b
0`
1W
0S
0?
1A
0;
1<
0=
1>
0P
1,
0+
1*
0)
1/
0-
0J
1h
1_
0e
1c
0a
1X
0T
#935000
0!
0C
0D
0M
#940000
1!
1C
1D
1M
1O
0K
0f
1d
0b
1`
1Y
0U
0@
1B
1;
0<
1=
0>
0,
1+
0*
1)
10
0.
0N
1J
0h
0_
1e
0c
1a
1[
1R
0V
#945000
0!
0C
0D
#950000
1!
1C
1D
1K
1f
0d
1b
0`
0W
1S
1?
0A
0;
1<
0=
1>
1,
0+
1*
0)
0/
1-
0J
1h
1_
0e
1c
0a
0X
1T
#955000
0!
0C
0D
0M
#960000
1!
1C
1D
1M
0O
0K
0f
1d
0b
1`
0Y
1U
1@
0B
1;
0<
1=
0>
1P
0,
1+
0*
1)
00
1.
1N
1J
0h
0_
1e
0c
1a
0[
0R
1V
#965000
0!
0C
0D
#970000
1!
1C
1D
1K
1f
0d
1b
0`
1W
0S
0?
1A
0;
1<
0=
1>
0P
1,
0+
1*
0)
1/
0-
0J
1h
1_
0e
1c
0a
1X
0T
#975000
0!
0C
0D
0M
#980000
1!
1C
1D
1M
1O
0K
0f
1d
0b
1`
1Y
0U
0@
1B
1;
0<
1=
0>
0,
1+
0*
1)
10
0.
0N
1J
0h
0_
1e
0c
1a
1[
1R
0V
#985000
0!
0C
0D
#990000
1!
1C
1D
1K
1f
0d
1b
0`
0W
1S
1?
0A
0;
1<
0=
1>
1,
0+
1*
0)
0/
1-
0J
1h
1_
0e
1c
0a
0X
1T
#995000
0!
0C
0D
0M
